蔡苗 | Miao Cai - 个体地址的空间绘图
…
病人地址数据绘图实战

gz_point_df = readr::read_csv(here(public_path, 'Guangzhou_points.csv'), show_col_types = FALSE)
gz_point_df

# A tibble: 16,402 × 2
       X     Y
   <dbl> <dbl>
 1  113.  23.1
 2  113.  23.1
 3  114.  23.3
 4  113.  22.8
 5  113.  22.8
 6  113.  23.1
 7  113.  22.9
 8  113.  23.1
 9  113.  23.1
10  113.  23.1
# … with 16,392 more rows
# ℹ Use `print(n = ...)` to see more rows
地址分布网格图

转换为矢量点

首先需要把经纬度的点转换成sf矢量点的数据，可以通过sf::st_as_sf()函数来实现

gz_point_sf = st_as_sf(gz_point_df, coords = c("X", "Y"), crs = 4326)
gz_point_sf

Simple feature collection with 16402 features and 0 fields
Geometry type: POINT
Dimension:     XY
Bounding box:  xmin: 109.2282 ymin: 20.26657 xmax: 115.7887 ymax: 26.07937
Geodetic CRS:  WGS 84
# A tibble: 16,402 × 1
              geometry
 *         <POINT [°]>
 1 (113.4126 23.11747)
 2 (113.4125 23.11745)
 3 (113.6053 23.28193)
 4 (113.4459 22.78224)
 5 (113.4459 22.78224)
 6 (113.3854 23.11756)
 7 (113.4597 22.92131)
 8 (113.4054 23.10063)
 9 (113.4054 23.10063)
10 (113.4054 23.10063)
# … with 16,392 more rows
# ℹ Use `print(n = ...)` to see more rows
…
gz_point_sf_within = st_filter(
  gz_point_sf, 
  gz_poly_sf)

gz_point_sf_within

Simple feature collection with 15446 features and 0 fields
Geometry type: POINT
Dimension:     XY
Bounding box:  xmin: 112.9677 ymin: 22.5888 xmax: 114.0157 ymax: 23.90779
Geodetic CRS:  WGS 84
# A tibble: 15,446 × 1
              geometry
 *         <POINT [°]>
 1 (113.4126 23.11747)
 2 (113.4125 23.11745)
 3 (113.6053 23.28193)
 4 (113.4459 22.78224)
 5 (113.4459 22.78224)
 6 (113.3854 23.11756)
 7 (113.4597 22.92131)
 8 (113.4054 23.10063)
 9 (113.4054 23.10063)
10 (113.4054 23.10063)
# … with 15,436 more rows
# ℹ Use `print(n = ...)` to see more rows
…
由于本数据的经纬度十分精细，对原始数据经纬度的计数过于精细，绘图时会重叠过多效果不佳。因此可将经纬度四舍五入到小数点后2位（大约为1km的精度），再对经纬度进行计数：

gz_point_count = gz_point_sf_within %>% 
  st_coordinates() %>% 
  as_tibble() %>% 
  mutate(X = round(X, 2),
         Y = round(Y, 2)) %>% 
  count(X, Y)

gz_point_count

# A tibble: 1,095 × 3
       X     Y     n
   <dbl> <dbl> <int>
 1  113.  23.4     1
 2  113.  23.4     3
 3  113.  23.4     2
 4  113.  23.4     8
 5  113.  23.3     8
 6  113.  23.4    15
 7  113.  23.4     1
 8  113.  23.3     3
 9  113.  23.3     1
10  113.  23.3     2
# … with 1,085 more rows
# ℹ Use `print(n = ...)` to see more rows
计数的经纬度转换成空间点

gz_point_count_sf = st_as_sf(
    gz_point_count, 
    coords = c('X', 'Y'), 
    crs = 4326) %>% 
  arrange(n)
gz_point_count_sf

Simple feature collection with 1095 features and 1 field
Geometry type: POINT
Dimension:     XY
Bounding box:  xmin: 112.97 ymin: 22.59 xmax: 114.02 ymax: 23.91
Geodetic CRS:  WGS 84
# A tibble: 1,095 × 2
       n       geometry
   <int>    <POINT [°]>
 1     1 (112.97 23.45)
 2     1 (113.04 23.41)
 3     1 (113.05 23.28)
 4     1 (113.05 23.31)
 5     1 (113.05 23.43)
 6     1 (113.05 23.46)
 7     1 (113.06 23.28)
 8     1 (113.06 23.37)
 9     1 (113.07 23.31)
10     1 (113.07 23.39)
# … with 1,085 more rows
# ℹ Use `print(n = ...)` to see more rows
…
